\relax 
\providecommand\hyper@newdestlabel[2]{}
\providecommand\zref@newlabel[2]{}
\@writefile{nav}{\headcommand {\slideentry {8}{0}{1}{12/13}{}{0}}}
\@writefile{nav}{\headcommand {\beamer@framepages {12}{13}}}
\@writefile{toc}{\beamer@sectionintoc {9}{Aplica\IeC {\c c}\IeC {\~o}es - Hierarquia de curr\IeC {\'\i }culos}{14}{0}{9}}
\@writefile{nav}{\headcommand {\sectionentry {9}{Aplica\IeC {\c c}\IeC {\~o}es - Hierarquia de curr\IeC {\'\i }culos}{14}{Aplica\IeC {\c c}\IeC {\~o}es - Hierarquia de curr\IeC {\'\i }culos}{0}}}
\@writefile{nav}{\headcommand {\beamer@sectionpages {12}{13}}}
\@writefile{nav}{\headcommand {\beamer@subsectionpages {12}{13}}}
\@writefile{nav}{\headcommand {\slideentry {9}{0}{1}{14/15}{}{0}}}
\@writefile{nav}{\headcommand {\beamer@framepages {14}{15}}}
\@writefile{nav}{\headcommand {\slideentry {9}{0}{2}{16/16}{}{0}}}
\@writefile{nav}{\headcommand {\beamer@framepages {16}{16}}}
\@writefile{toc}{\beamer@sectionintoc {10}{Aplica\IeC {\c c}\IeC {\~o}es - Aplica\IeC {\c c}\IeC {\~a}o para cadastro da plataforma Sucupiras}{17}{0}{10}}
\@writefile{nav}{\headcommand {\sectionentry {10}{Aplica\IeC {\c c}\IeC {\~o}es - Aplica\IeC {\c c}\IeC {\~a}o para cadastro da plataforma Sucupiras}{17}{Aplica\IeC {\c c}\IeC {\~o}es - Aplica\IeC {\c c}\IeC {\~a}o para cadastro da plataforma Sucupiras}{0}}}
\@writefile{nav}{\headcommand {\beamer@sectionpages {14}{16}}}
\@writefile{nav}{\headcommand {\beamer@subsectionpages {14}{16}}}
\@writefile{nav}{\headcommand {\slideentry {10}{0}{1}{17/17}{}{0}}}
\@writefile{nav}{\headcommand {\beamer@framepages {17}{17}}}
\@writefile{nav}{\headcommand {\slideentry {10}{0}{2}{18/18}{}{0}}}
\@writefile{nav}{\headcommand {\beamer@framepages {18}{18}}}
\@writefile{nav}{\headcommand {\slideentry {10}{0}{3}{19/19}{}{0}}}
\@writefile{nav}{\headcommand {\beamer@framepages {19}{19}}}
\citation{nigro2015uso}
\citation{nigro2017prestaccao}
\citation{ferraz2014use}
\@writefile{nav}{\headcommand {\slideentry {10}{0}{4}{20/20}{}{0}}}
\@writefile{nav}{\headcommand {\beamer@framepages {20}{20}}}
\@writefile{toc}{\beamer@sectionintoc {11}{Aplica\IeC {\c c}\IeC {\~o}es - Aplica\IeC {\c c}\IeC {\~a}o para cadastro da plataforma e-Mec}{21}{0}{11}}
\@writefile{nav}{\headcommand {\sectionentry {11}{Aplica\IeC {\c c}\IeC {\~o}es - Aplica\IeC {\c c}\IeC {\~a}o para cadastro da plataforma e-Mec}{21}{Aplica\IeC {\c c}\IeC {\~o}es - Aplica\IeC {\c c}\IeC {\~a}o para cadastro da plataforma e-Mec}{0}}}
\@writefile{nav}{\headcommand {\beamer@sectionpages {17}{20}}}
\@writefile{nav}{\headcommand {\beamer@subsectionpages {17}{20}}}
\@writefile{nav}{\headcommand {\slideentry {11}{0}{1}{21/21}{}{0}}}
\@writefile{nav}{\headcommand {\beamer@framepages {21}{21}}}
\@writefile{nav}{\headcommand {\slideentry {11}{0}{2}{22/22}{}{0}}}
\@writefile{nav}{\headcommand {\beamer@framepages {22}{22}}}
\citation{juliano2017}
\citation{marcos2017}
\@writefile{nav}{\headcommand {\slideentry {11}{0}{3}{23/23}{}{0}}}
\@writefile{nav}{\headcommand {\beamer@framepages {23}{23}}}
\@writefile{nav}{\headcommand {\slideentry {11}{0}{4}{24/24}{}{0}}}
\@writefile{nav}{\headcommand {\beamer@framepages {24}{24}}}
\@writefile{nav}{\headcommand {\slideentry {11}{0}{5}{25/26}{}{0}}}
\@writefile{nav}{\headcommand {\beamer@framepages {25}{26}}}
\@writefile{nav}{\headcommand {\slideentry {11}{0}{6}{27/29}{}{0}}}
\@writefile{nav}{\headcommand {\beamer@framepages {27}{29}}}
\@writefile{nav}{\headcommand {\slideentry {11}{0}{7}{30/31}{}{0}}}
\@writefile{nav}{\headcommand {\beamer@framepages {30}{31}}}
\@writefile{nav}{\headcommand {\slideentry {11}{0}{8}{32/33}{}{0}}}
\@writefile{nav}{\headcommand {\beamer@framepages {32}{33}}}
\@writefile{nav}{\headcommand {\slideentry {11}{0}{9}{34/35}{}{0}}}
\@writefile{nav}{\headcommand {\beamer@framepages {34}{35}}}
\@writefile{toc}{\beamer@sectionintoc {12}{Aplica\IeC {\c c}\IeC {\~o}es - ScriptComp}{36}{0}{12}}
\@writefile{nav}{\headcommand {\sectionentry {12}{Aplica\IeC {\c c}\IeC {\~o}es - ScriptComp}{36}{Aplica\IeC {\c c}\IeC {\~o}es - ScriptComp}{0}}}
\@writefile{nav}{\headcommand {\beamer@sectionpages {21}{35}}}
\@writefile{nav}{\headcommand {\beamer@subsectionpages {21}{35}}}
\@writefile{nav}{\headcommand {\slideentry {12}{0}{1}{36/36}{}{0}}}
\@writefile{nav}{\headcommand {\beamer@framepages {36}{36}}}
\@writefile{nav}{\headcommand {\slideentry {12}{0}{2}{37/37}{}{0}}}
\@writefile{nav}{\headcommand {\beamer@framepages {37}{37}}}
\@writefile{nav}{\headcommand {\slideentry {12}{0}{3}{38/38}{}{0}}}
\@writefile{nav}{\headcommand {\beamer@framepages {38}{38}}}
\@writefile{toc}{\beamer@sectionintoc {13}{IndProdArt}{39}{0}{13}}
\@writefile{nav}{\headcommand {\sectionentry {13}{IndProdArt}{39}{IndProdArt}{0}}}
\@writefile{nav}{\headcommand {\beamer@sectionpages {36}{38}}}
\@writefile{nav}{\headcommand {\beamer@subsectionpages {36}{38}}}
\@writefile{nav}{\headcommand {\slideentry {13}{0}{1}{39/39}{}{0}}}
\@writefile{nav}{\headcommand {\beamer@framepages {39}{39}}}
\@writefile{nav}{\headcommand {\slideentry {13}{0}{2}{40/40}{}{0}}}
\@writefile{nav}{\headcommand {\beamer@framepages {40}{40}}}
\@writefile{toc}{\beamer@sectionintoc {14}{IndProdArtSUP}{41}{0}{14}}
\@writefile{nav}{\headcommand {\sectionentry {14}{IndProdArtSUP}{41}{IndProdArtSUP}{0}}}
\@writefile{nav}{\headcommand {\beamer@sectionpages {39}{40}}}
\@writefile{nav}{\headcommand {\beamer@subsectionpages {39}{40}}}
\@writefile{nav}{\headcommand {\slideentry {14}{0}{1}{41/41}{}{0}}}
\@writefile{nav}{\headcommand {\beamer@framepages {41}{41}}}
\@writefile{nav}{\headcommand {\slideentry {14}{0}{2}{42/42}{}{0}}}
\@writefile{nav}{\headcommand {\beamer@framepages {42}{42}}}
\@writefile{toc}{\beamer@sectionintoc {15}{IndProdOrient}{43}{0}{15}}
\@writefile{nav}{\headcommand {\sectionentry {15}{IndProdOrient}{43}{IndProdOrient}{0}}}
\@writefile{nav}{\headcommand {\beamer@sectionpages {41}{42}}}
\@writefile{nav}{\headcommand {\beamer@subsectionpages {41}{42}}}
\@writefile{nav}{\headcommand {\slideentry {15}{0}{1}{43/43}{}{0}}}
\@writefile{nav}{\headcommand {\beamer@framepages {43}{43}}}
\@writefile{nav}{\headcommand {\slideentry {15}{0}{2}{44/44}{}{0}}}
\@writefile{nav}{\headcommand {\beamer@framepages {44}{44}}}
\@writefile{toc}{\beamer@sectionintoc {16}{IndProd}{45}{0}{16}}
\@writefile{nav}{\headcommand {\sectionentry {16}{IndProd}{45}{IndProd}{0}}}
\@writefile{nav}{\headcommand {\beamer@sectionpages {43}{44}}}
\@writefile{nav}{\headcommand {\beamer@subsectionpages {43}{44}}}
\@writefile{nav}{\headcommand {\slideentry {16}{0}{1}{45/45}{}{0}}}
\@writefile{nav}{\headcommand {\beamer@framepages {45}{45}}}
\@writefile{nav}{\headcommand {\slideentry {16}{0}{2}{46/46}{}{0}}}
\@writefile{nav}{\headcommand {\beamer@framepages {46}{46}}}
\@setckpt{agrupamentoHierarquico}{
\setcounter{page}{47}
\setcounter{equation}{4}
\setcounter{enumi}{0}
\setcounter{enumii}{0}
\setcounter{enumiii}{0}
\setcounter{enumiv}{0}
\setcounter{footnote}{0}
\setcounter{mpfootnote}{0}
\setcounter{beamerpauses}{1}
\setcounter{bookmark@seq@number}{17}
\setcounter{lecture}{0}
\setcounter{part}{0}
\setcounter{section}{16}
\setcounter{subsection}{0}
\setcounter{subsubsection}{0}
\setcounter{subsectionslide}{2}
\setcounter{framenumber}{36}
\setcounter{figure}{1}
\setcounter{table}{0}
\setcounter{parentequation}{0}
\setcounter{theorem}{0}
\setcounter{AM@survey}{0}
\setcounter{LT@tables}{0}
\setcounter{LT@chunks}{0}
\setcounter{ContinuedFloat}{0}
\setcounter{KVtest}{0}
\setcounter{subfigure}{0}
\setcounter{subfigure@save}{0}
\setcounter{depth}{1}
\setcounter{subtable}{0}
\setcounter{subtable@save}{0}
\setcounter{section@level}{0}
}
