\relax 
\providecommand\hyper@newdestlabel[2]{}
\providecommand\zref@newlabel[2]{}
\@writefile{toc}{\beamer@sectionintoc {18}{Aplica\IeC {\c c}\IeC {\~o}es - Hierarquia de curr\IeC {\'\i }culos}{47}{0}{18}}
\@writefile{nav}{\headcommand {\sectionentry {18}{Aplica\IeC {\c c}\IeC {\~o}es - Hierarquia de curr\IeC {\'\i }culos}{47}{Aplica\IeC {\c c}\IeC {\~o}es - Hierarquia de curr\IeC {\'\i }culos}{0}}}
\@writefile{nav}{\headcommand {\beamer@sectionpages {47}{46}}}
\@writefile{nav}{\headcommand {\beamer@subsectionpages {47}{46}}}
\@writefile{nav}{\headcommand {\slideentry {18}{0}{1}{47/48}{}{0}}}
\@writefile{nav}{\headcommand {\beamer@framepages {47}{48}}}
\@writefile{nav}{\headcommand {\slideentry {18}{0}{2}{49/49}{}{0}}}
\@writefile{nav}{\headcommand {\beamer@framepages {49}{49}}}
\@writefile{toc}{\beamer@sectionintoc {19}{Aplica\IeC {\c c}\IeC {\~o}es - Aplica\IeC {\c c}\IeC {\~a}o para cadastro da plataforma Sucupiras}{50}{0}{19}}
\@writefile{nav}{\headcommand {\sectionentry {19}{Aplica\IeC {\c c}\IeC {\~o}es - Aplica\IeC {\c c}\IeC {\~a}o para cadastro da plataforma Sucupiras}{50}{Aplica\IeC {\c c}\IeC {\~o}es - Aplica\IeC {\c c}\IeC {\~a}o para cadastro da plataforma Sucupiras}{0}}}
\@writefile{nav}{\headcommand {\beamer@sectionpages {47}{49}}}
\@writefile{nav}{\headcommand {\beamer@subsectionpages {47}{49}}}
\@writefile{nav}{\headcommand {\slideentry {19}{0}{1}{50/50}{}{0}}}
\@writefile{nav}{\headcommand {\beamer@framepages {50}{50}}}
\@writefile{nav}{\headcommand {\slideentry {19}{0}{2}{51/51}{}{0}}}
\@writefile{nav}{\headcommand {\beamer@framepages {51}{51}}}
\@writefile{nav}{\headcommand {\slideentry {19}{0}{3}{52/52}{}{0}}}
\@writefile{nav}{\headcommand {\beamer@framepages {52}{52}}}
\citation{nigro2015uso}
\citation{nigro2017prestaccao}
\citation{ferraz2014use}
\citation{nigro2015uso}
\citation{nigro2017prestaccao}
\citation{ferraz2014use}
\citation{nigro2015uso}
\citation{nigro2017prestaccao}
\citation{ferraz2014use}
\@writefile{nav}{\headcommand {\slideentry {19}{0}{4}{53/55}{}{0}}}
\@writefile{nav}{\headcommand {\beamer@framepages {53}{55}}}
\@writefile{toc}{\beamer@sectionintoc {20}{Aplica\IeC {\c c}\IeC {\~o}es - Aplica\IeC {\c c}\IeC {\~a}o para cadastro da plataforma e-Mec}{56}{0}{20}}
\@writefile{nav}{\headcommand {\sectionentry {20}{Aplica\IeC {\c c}\IeC {\~o}es - Aplica\IeC {\c c}\IeC {\~a}o para cadastro da plataforma e-Mec}{56}{Aplica\IeC {\c c}\IeC {\~o}es - Aplica\IeC {\c c}\IeC {\~a}o para cadastro da plataforma e-Mec}{0}}}
\@writefile{nav}{\headcommand {\beamer@sectionpages {50}{55}}}
\@writefile{nav}{\headcommand {\beamer@subsectionpages {50}{55}}}
\@writefile{nav}{\headcommand {\slideentry {20}{0}{1}{56/58}{}{0}}}
\@writefile{nav}{\headcommand {\beamer@framepages {56}{58}}}
\@writefile{nav}{\headcommand {\slideentry {20}{0}{2}{59/59}{}{0}}}
\@writefile{nav}{\headcommand {\beamer@framepages {59}{59}}}
\citation{juliano2017}
\citation{marcos2017}
\citation{juliano2017}
\citation{marcos2017}
\@writefile{nav}{\headcommand {\slideentry {20}{0}{3}{60/61}{}{0}}}
\@writefile{nav}{\headcommand {\beamer@framepages {60}{61}}}
\@writefile{toc}{\beamer@sectionintoc {21}{Aplica\IeC {\c c}\IeC {\~o}es - ScriptComp}{62}{0}{21}}
\@writefile{nav}{\headcommand {\sectionentry {21}{Aplica\IeC {\c c}\IeC {\~o}es - ScriptComp}{62}{Aplica\IeC {\c c}\IeC {\~o}es - ScriptComp}{0}}}
\@writefile{nav}{\headcommand {\beamer@sectionpages {56}{61}}}
\@writefile{nav}{\headcommand {\beamer@subsectionpages {56}{61}}}
\@writefile{nav}{\headcommand {\slideentry {21}{0}{1}{62/62}{}{0}}}
\@writefile{nav}{\headcommand {\beamer@framepages {62}{62}}}
\@writefile{nav}{\headcommand {\slideentry {21}{0}{2}{63/63}{}{0}}}
\@writefile{nav}{\headcommand {\beamer@framepages {63}{63}}}
\@writefile{nav}{\headcommand {\slideentry {21}{0}{3}{64/64}{}{0}}}
\@writefile{nav}{\headcommand {\beamer@framepages {64}{64}}}
\@writefile{toc}{\beamer@sectionintoc {22}{IndProdArt}{65}{0}{22}}
\@writefile{nav}{\headcommand {\sectionentry {22}{IndProdArt}{65}{IndProdArt}{0}}}
\@writefile{nav}{\headcommand {\beamer@sectionpages {62}{64}}}
\@writefile{nav}{\headcommand {\beamer@subsectionpages {62}{64}}}
\@writefile{nav}{\headcommand {\slideentry {22}{0}{1}{65/65}{}{0}}}
\@writefile{nav}{\headcommand {\beamer@framepages {65}{65}}}
\@writefile{nav}{\headcommand {\slideentry {22}{0}{2}{66/66}{}{0}}}
\@writefile{nav}{\headcommand {\beamer@framepages {66}{66}}}
\@writefile{toc}{\beamer@sectionintoc {23}{IndProdArtSUP}{67}{0}{23}}
\@writefile{nav}{\headcommand {\sectionentry {23}{IndProdArtSUP}{67}{IndProdArtSUP}{0}}}
\@writefile{nav}{\headcommand {\beamer@sectionpages {65}{66}}}
\@writefile{nav}{\headcommand {\beamer@subsectionpages {65}{66}}}
\@writefile{nav}{\headcommand {\slideentry {23}{0}{1}{67/67}{}{0}}}
\@writefile{nav}{\headcommand {\beamer@framepages {67}{67}}}
\@writefile{nav}{\headcommand {\slideentry {23}{0}{2}{68/68}{}{0}}}
\@writefile{nav}{\headcommand {\beamer@framepages {68}{68}}}
\@writefile{toc}{\beamer@sectionintoc {24}{IndProdOrient}{69}{0}{24}}
\@writefile{nav}{\headcommand {\sectionentry {24}{IndProdOrient}{69}{IndProdOrient}{0}}}
\@writefile{nav}{\headcommand {\beamer@sectionpages {67}{68}}}
\@writefile{nav}{\headcommand {\beamer@subsectionpages {67}{68}}}
\@writefile{nav}{\headcommand {\slideentry {24}{0}{1}{69/69}{}{0}}}
\@writefile{nav}{\headcommand {\beamer@framepages {69}{69}}}
\@writefile{nav}{\headcommand {\slideentry {24}{0}{2}{70/70}{}{0}}}
\@writefile{nav}{\headcommand {\beamer@framepages {70}{70}}}
\@writefile{toc}{\beamer@sectionintoc {25}{IndProd}{71}{0}{25}}
\@writefile{nav}{\headcommand {\sectionentry {25}{IndProd}{71}{IndProd}{0}}}
\@writefile{nav}{\headcommand {\beamer@sectionpages {69}{70}}}
\@writefile{nav}{\headcommand {\beamer@subsectionpages {69}{70}}}
\@writefile{nav}{\headcommand {\slideentry {25}{0}{1}{71/71}{}{0}}}
\@writefile{nav}{\headcommand {\beamer@framepages {71}{71}}}
\@writefile{nav}{\headcommand {\slideentry {25}{0}{2}{72/72}{}{0}}}
\@writefile{nav}{\headcommand {\beamer@framepages {72}{72}}}
\@setckpt{aplicacoes}{
\setcounter{page}{73}
\setcounter{equation}{8}
\setcounter{enumi}{0}
\setcounter{enumii}{0}
\setcounter{enumiii}{0}
\setcounter{enumiv}{0}
\setcounter{footnote}{0}
\setcounter{mpfootnote}{0}
\setcounter{beamerpauses}{1}
\setcounter{bookmark@seq@number}{26}
\setcounter{lecture}{0}
\setcounter{part}{0}
\setcounter{section}{25}
\setcounter{subsection}{0}
\setcounter{subsubsection}{0}
\setcounter{subsectionslide}{2}
\setcounter{framenumber}{56}
\setcounter{figure}{1}
\setcounter{table}{0}
\setcounter{parentequation}{0}
\setcounter{theorem}{0}
\setcounter{AM@survey}{0}
\setcounter{LT@tables}{0}
\setcounter{LT@chunks}{0}
\setcounter{ContinuedFloat}{0}
\setcounter{KVtest}{0}
\setcounter{subfigure}{0}
\setcounter{subfigure@save}{0}
\setcounter{depth}{1}
\setcounter{subtable}{0}
\setcounter{subtable@save}{0}
\setcounter{section@level}{0}
}
