\relax 
\providecommand\hyper@newdestlabel[2]{}
\providecommand\zref@newlabel[2]{}
\providecommand\HyperFirstAtBeginDocument{\AtBeginDocument}
\HyperFirstAtBeginDocument{\ifx\hyper@anchor\@undefined
\global\let\oldcontentsline\contentsline
\gdef\contentsline#1#2#3#4{\oldcontentsline{#1}{#2}{#3}}
\global\let\oldnewlabel\newlabel
\gdef\newlabel#1#2{\newlabelxx{#1}#2}
\gdef\newlabelxx#1#2#3#4#5#6{\oldnewlabel{#1}{{#2}{#3}}}
\AtEndDocument{\ifx\hyper@anchor\@undefined
\let\contentsline\oldcontentsline
\let\newlabel\oldnewlabel
\fi}
\fi}
\global\let\hyper@last\relax 
\gdef\HyperFirstAtBeginDocument#1{#1}
\providecommand\HyField@AuxAddToFields[1]{}
\providecommand\HyField@AuxAddToCoFields[2]{}
\catcode `"\active 
\providecommand\AtEndDvi@Check{}
\AtEndDvi@Check
\@writefile{toc}{\beamer@endinputifotherversion {3.36pt}}
\@writefile{nav}{\beamer@endinputifotherversion {3.36pt}}
\select@language{brazil}
\@writefile{toc}{\select@language{brazil}}
\@writefile{lof}{\select@language{brazil}}
\@writefile{lot}{\select@language{brazil}}
\@writefile{nav}{\headcommand {\slideentry {0}{0}{1}{1/1}{}{0}}}
\@writefile{nav}{\headcommand {\beamer@framepages {1}{1}}}
\@writefile{toc}{\beamer@sectionintoc {1}{Roteiro da apresenta\IeC {\c c}\IeC {\~a}o}{2}{0}{1}}
\@writefile{nav}{\headcommand {\sectionentry {1}{Roteiro da apresenta\IeC {\c c}\IeC {\~a}o}{2}{Roteiro da apresenta\IeC {\c c}\IeC {\~a}o}{0}}}
\@writefile{nav}{\headcommand {\beamer@sectionpages {1}{1}}}
\@writefile{nav}{\headcommand {\beamer@subsectionpages {1}{1}}}
\@writefile{nav}{\headcommand {\slideentry {1}{0}{1}{2/2}{}{0}}}
\@writefile{nav}{\headcommand {\beamer@framepages {2}{2}}}
\@input{introducao.aux}
\@writefile{toc}{\beamer@sectionintoc {2}{introducao}{3}{0}{2}}
\@writefile{nav}{\headcommand {\sectionentry {2}{introducao}{3}{introducao}{0}}}
\@writefile{nav}{\headcommand {\beamer@sectionpages {2}{2}}}
\@writefile{nav}{\headcommand {\beamer@subsectionpages {2}{2}}}
\@input{problema.aux}
\@writefile{toc}{\beamer@sectionintoc {7}{problema}{8}{0}{7}}
\@writefile{nav}{\headcommand {\sectionentry {7}{problema}{8}{problema}{0}}}
\@writefile{nav}{\headcommand {\beamer@sectionpages {7}{7}}}
\@writefile{nav}{\headcommand {\beamer@subsectionpages {7}{7}}}
\@input{agrupamentoHierarquico.aux}
\@writefile{toc}{\beamer@sectionintoc {8}{agrupamento}{12}{0}{8}}
\@writefile{nav}{\headcommand {\sectionentry {8}{agrupamento}{12}{agrupamento}{0}}}
\@writefile{nav}{\headcommand {\beamer@sectionpages {8}{11}}}
\@writefile{nav}{\headcommand {\beamer@subsectionpages {8}{11}}}
\@input{conclusao.aux}
\@writefile{toc}{\beamer@sectionintoc {17}{conclusao}{47}{0}{17}}
\@writefile{nav}{\headcommand {\sectionentry {17}{conclusao}{47}{conclusao}{0}}}
\@writefile{nav}{\headcommand {\beamer@sectionpages {45}{46}}}
\@writefile{nav}{\headcommand {\beamer@subsectionpages {45}{46}}}
\bibstyle{apalike}
\bibdata{refs-bib}
\bibcite{juliano2017}{\hyperlink {beamerbibjuliano2017}{Bavaresco, 2017}}
\bibcite{de2014redes}{\hyperlink {beamerbibde2014redes}{de~Oliveira et~al., 2014}}
\bibcite{fernandez2012semantic}{\hyperlink {beamerbibfernandez2012semantic}{Fern{\'a}ndez-Breis et~al., 2012}}
\bibcite{ferraz2014use}{\hyperlink {beamerbibferraz2014use}{Ferraz et~al., 2014}}
\bibcite{giordano2015uso}{\hyperlink {beamerbibgiordano2015uso}{Giordano et~al., 2015}}
\bibcite{lane2010let}{\hyperlink {beamerbiblane2010let}{Lane, 2010}}
\bibcite{mena2013prospecccao}{\hyperlink {beamerbibmena2013prospecccao}{Mena-Chalco and JUNIOR, 2013}}
\bibcite{nigro2016uso}{\hyperlink {beamerbibnigro2016uso}{Nigro et~al., 2016}}
\bibcite{nigro2015uso}{\hyperlink {beamerbibnigro2015uso}{NIGRO et~al., 2015}}
\bibcite{nigro2017prestaccao}{\hyperlink {beamerbibnigro2017prestaccao}{Nigro et~al., 2017}}
\bibcite{silva2007organizaccao}{\hyperlink {beamerbibsilva2007organizaccao}{SILVA, 2007}}
\bibcite{marcos2017}{\hyperlink {beamerbibmarcos2017}{Silva, 2017}}
\bibcite{silveira2012analise}{\hyperlink {beamerbibsilveira2012analise}{Silveira~Andretta et~al., 2012}}
\@writefile{nav}{\headcommand {\slideentry {18}{0}{4}{51/51}{}{0}}}
\@writefile{nav}{\headcommand {\beamer@framepages {51}{51}}}
\@writefile{nav}{\headcommand {\slideentry {18}{0}{4}{51/52}{}{0}}}
\@writefile{nav}{\headcommand {\beamer@framepages {51}{52}}}
\@writefile{nav}{\headcommand {\slideentry {18}{0}{4}{51/53}{}{0}}}
\@writefile{nav}{\headcommand {\beamer@framepages {51}{53}}}
\@writefile{nav}{\headcommand {\slideentry {18}{0}{4}{51/54}{}{0}}}
\@writefile{nav}{\headcommand {\beamer@framepages {51}{54}}}
\@writefile{nav}{\headcommand {\slideentry {18}{0}{4}{51/55}{}{0}}}
\@writefile{nav}{\headcommand {\beamer@framepages {51}{55}}}
\@writefile{nav}{\headcommand {\slideentry {18}{0}{4}{51/56}{}{0}}}
\@writefile{nav}{\headcommand {\beamer@framepages {51}{56}}}
\@writefile{nav}{\headcommand {\beamer@partpages {1}{56}}}
\@writefile{nav}{\headcommand {\beamer@subsectionpages {47}{56}}}
\@writefile{nav}{\headcommand {\beamer@sectionpages {47}{56}}}
\@writefile{nav}{\headcommand {\beamer@documentpages {56}}}
\@writefile{nav}{\headcommand {\def \inserttotalframenumber {44}}}
\zref@newlabel{LastPage}{\default{44}\page{56}\abspage{56}}
