\relax 
\providecommand\hyper@newdestlabel[2]{}
\providecommand\zref@newlabel[2]{}
\providecommand\HyperFirstAtBeginDocument{\AtBeginDocument}
\HyperFirstAtBeginDocument{\ifx\hyper@anchor\@undefined
\global\let\oldcontentsline\contentsline
\gdef\contentsline#1#2#3#4{\oldcontentsline{#1}{#2}{#3}}
\global\let\oldnewlabel\newlabel
\gdef\newlabel#1#2{\newlabelxx{#1}#2}
\gdef\newlabelxx#1#2#3#4#5#6{\oldnewlabel{#1}{{#2}{#3}}}
\AtEndDocument{\ifx\hyper@anchor\@undefined
\let\contentsline\oldcontentsline
\let\newlabel\oldnewlabel
\fi}
\fi}
\global\let\hyper@last\relax 
\gdef\HyperFirstAtBeginDocument#1{#1}
\providecommand\HyField@AuxAddToFields[1]{}
\providecommand\HyField@AuxAddToCoFields[2]{}
\catcode `"\active 
\providecommand\AtEndDvi@Check{}
\AtEndDvi@Check
\@writefile{toc}{\beamer@endinputifotherversion {3.36pt}}
\@writefile{nav}{\beamer@endinputifotherversion {3.36pt}}
\select@language{brazil}
\@writefile{toc}{\select@language{brazil}}
\@writefile{lof}{\select@language{brazil}}
\@writefile{lot}{\select@language{brazil}}
\@writefile{nav}{\headcommand {\slideentry {0}{0}{1}{1/1}{}{0}}}
\@writefile{nav}{\headcommand {\beamer@framepages {1}{1}}}
\@writefile{toc}{\beamer@sectionintoc {1}{Roteiro da apresenta\IeC {\c c}\IeC {\~a}o}{2}{0}{1}}
\@writefile{nav}{\headcommand {\sectionentry {1}{Roteiro da apresenta\IeC {\c c}\IeC {\~a}o}{2}{Roteiro da apresenta\IeC {\c c}\IeC {\~a}o}{0}}}
\@writefile{nav}{\headcommand {\beamer@sectionpages {1}{1}}}
\@writefile{nav}{\headcommand {\beamer@subsectionpages {1}{1}}}
\@writefile{nav}{\headcommand {\slideentry {1}{0}{1}{2/2}{}{0}}}
\@writefile{nav}{\headcommand {\beamer@framepages {2}{2}}}
\@input{introducao.aux}
\@writefile{toc}{\beamer@sectionintoc {2}{introducao}{3}{0}{2}}
\@writefile{nav}{\headcommand {\sectionentry {2}{introducao}{3}{introducao}{0}}}
\@writefile{nav}{\headcommand {\beamer@sectionpages {2}{2}}}
\@writefile{nav}{\headcommand {\beamer@subsectionpages {2}{2}}}
\@input{problema.aux}
\@writefile{toc}{\beamer@sectionintoc {7}{problema}{8}{0}{7}}
\@writefile{nav}{\headcommand {\sectionentry {7}{problema}{8}{problema}{0}}}
\@writefile{nav}{\headcommand {\beamer@sectionpages {7}{7}}}
\@writefile{nav}{\headcommand {\beamer@subsectionpages {7}{7}}}
\@input{agrupamentoHierarquico.aux}
\@writefile{toc}{\beamer@sectionintoc {8}{agrupamento}{12}{0}{8}}
\@writefile{nav}{\headcommand {\sectionentry {8}{agrupamento}{12}{agrupamento}{0}}}
\@writefile{nav}{\headcommand {\beamer@sectionpages {8}{11}}}
\@writefile{nav}{\headcommand {\beamer@subsectionpages {8}{11}}}
\@input{aplicacoes.aux}
\@writefile{toc}{\beamer@sectionintoc {17}{aplicacoes}{47}{0}{17}}
\@writefile{nav}{\headcommand {\sectionentry {17}{aplicacoes}{47}{aplicacoes}{0}}}
\@writefile{nav}{\headcommand {\beamer@sectionpages {45}{46}}}
\@writefile{nav}{\headcommand {\beamer@subsectionpages {45}{46}}}
\@input{conclusao.aux}
\@writefile{toc}{\beamer@sectionintoc {26}{conclusao}{73}{0}{26}}
\@writefile{nav}{\headcommand {\sectionentry {26}{conclusao}{73}{conclusao}{0}}}
\@writefile{nav}{\headcommand {\beamer@sectionpages {71}{72}}}
\@writefile{nav}{\headcommand {\beamer@subsectionpages {71}{72}}}
\@input{resultado.aux}
\@writefile{toc}{\beamer@sectionintoc {28}{resultados}{77}{0}{28}}
\@writefile{nav}{\headcommand {\sectionentry {28}{resultados}{77}{resultados}{0}}}
\@writefile{nav}{\headcommand {\beamer@sectionpages {73}{76}}}
\@writefile{nav}{\headcommand {\beamer@subsectionpages {73}{76}}}
\@writefile{nav}{\headcommand {\slideentry {28}{0}{2}{82/82}{}{0}}}
\@writefile{nav}{\headcommand {\beamer@framepages {82}{82}}}
\bibstyle{apalike}
\bibdata{refs-bib}
\@writefile{nav}{\headcommand {\slideentry {28}{0}{3}{83/83}{}{0}}}
\@writefile{nav}{\headcommand {\beamer@framepages {83}{83}}}
\@writefile{nav}{\headcommand {\beamer@partpages {1}{83}}}
\@writefile{nav}{\headcommand {\beamer@subsectionpages {77}{83}}}
\@writefile{nav}{\headcommand {\beamer@sectionpages {77}{83}}}
\@writefile{nav}{\headcommand {\beamer@documentpages {83}}}
\@writefile{nav}{\headcommand {\def \inserttotalframenumber {60}}}
\zref@newlabel{LastPage}{\default{28}\page{83}\abspage{83}}
