\BOOKMARK [2][]{Outline0.1}{Roteiro da apresenta\347\343o}{}% 1
\BOOKMARK [2][]{Outline0.2}{introducao}{}% 2
\BOOKMARK [2][]{Outline0.3}{Introdu\347\343o}{}% 3
\BOOKMARK [2][]{Outline0.4}{Introdu\347\343o ferramentas}{}% 4
\BOOKMARK [2][]{Outline0.5}{Introdu\347\343o processo ScriptLattes}{}% 5
\BOOKMARK [2][]{Outline0.6}{Introdu\347\343o trabalho}{}% 6
\BOOKMARK [2][]{Outline0.7}{problema}{}% 7
\BOOKMARK [3][]{Outline0.7.1.8}{Questoes}{Outline0.7}% 8
\BOOKMARK [2][]{Outline0.8}{agrupamento}{}% 9
\BOOKMARK [2][]{Outline0.9}{Aplica\347\365es - Hierarquia de curr\355culos}{}% 10
\BOOKMARK [2][]{Outline0.10}{Aplica\347\365es - Aplica\347\343o para cadastro da plataforma Sucupiras}{}% 11
\BOOKMARK [2][]{Outline0.11}{Aplica\347\365es - Aplica\347\343o para cadastro da plataforma e-Mec}{}% 12
\BOOKMARK [2][]{Outline0.12}{Aplica\347\365es - ScriptComp}{}% 13
\BOOKMARK [2][]{Outline0.13}{IndProdArt}{}% 14
\BOOKMARK [2][]{Outline0.14}{IndProdArtSUP}{}% 15
\BOOKMARK [2][]{Outline0.15}{IndProdOrient}{}% 16
\BOOKMARK [2][]{Outline0.16}{IndProd}{}% 17
\BOOKMARK [2][]{Outline0.17}{aplicacoes}{}% 18
\BOOKMARK [2][]{Outline0.18}{Aplica\347\365es - Hierarquia de curr\355culos}{}% 19
\BOOKMARK [2][]{Outline0.19}{Aplica\347\365es - Aplica\347\343o para cadastro da plataforma Sucupiras}{}% 20
\BOOKMARK [2][]{Outline0.20}{Aplica\347\365es - Aplica\347\343o para cadastro da plataforma e-Mec}{}% 21
\BOOKMARK [2][]{Outline0.21}{Aplica\347\365es - ScriptComp}{}% 22
\BOOKMARK [2][]{Outline0.22}{IndProdArt}{}% 23
\BOOKMARK [2][]{Outline0.23}{IndProdArtSUP}{}% 24
\BOOKMARK [2][]{Outline0.24}{IndProdOrient}{}% 25
\BOOKMARK [2][]{Outline0.25}{IndProd}{}% 26
\BOOKMARK [2][]{Outline0.26}{conclusao}{}% 27
\BOOKMARK [2][]{Outline0.27}{conclusao}{}% 28
\BOOKMARK [2][]{Outline0.28}{resultados}{}% 29
