\relax 
\providecommand\hyper@newdestlabel[2]{}
\providecommand\zref@newlabel[2]{}
\@writefile{toc}{\beamer@sectionintoc {27}{conclusao}{73}{0}{27}}
\@writefile{nav}{\headcommand {\sectionentry {27}{conclusao}{73}{conclusao}{0}}}
\@writefile{nav}{\headcommand {\beamer@sectionpages {73}{72}}}
\@writefile{nav}{\headcommand {\beamer@subsectionpages {73}{72}}}
\@writefile{nav}{\headcommand {\slideentry {27}{0}{1}{73/74}{}{0}}}
\@writefile{nav}{\headcommand {\beamer@framepages {73}{74}}}
\@writefile{nav}{\headcommand {\slideentry {27}{0}{2}{75/75}{}{0}}}
\@writefile{nav}{\headcommand {\beamer@framepages {75}{75}}}
\@writefile{nav}{\headcommand {\slideentry {27}{0}{3}{76/76}{}{0}}}
\@writefile{nav}{\headcommand {\beamer@framepages {76}{76}}}
\@setckpt{conclusao}{
\setcounter{page}{77}
\setcounter{equation}{8}
\setcounter{enumi}{0}
\setcounter{enumii}{0}
\setcounter{enumiii}{0}
\setcounter{enumiv}{0}
\setcounter{footnote}{0}
\setcounter{mpfootnote}{0}
\setcounter{beamerpauses}{1}
\setcounter{bookmark@seq@number}{28}
\setcounter{lecture}{0}
\setcounter{part}{0}
\setcounter{section}{27}
\setcounter{subsection}{0}
\setcounter{subsubsection}{0}
\setcounter{subsectionslide}{3}
\setcounter{framenumber}{59}
\setcounter{figure}{1}
\setcounter{table}{0}
\setcounter{parentequation}{0}
\setcounter{theorem}{0}
\setcounter{AM@survey}{0}
\setcounter{LT@tables}{0}
\setcounter{LT@chunks}{0}
\setcounter{ContinuedFloat}{0}
\setcounter{KVtest}{0}
\setcounter{subfigure}{0}
\setcounter{subfigure@save}{0}
\setcounter{depth}{1}
\setcounter{subtable}{0}
\setcounter{subtable@save}{0}
\setcounter{section@level}{0}
}
