\relax 
\providecommand\hyper@newdestlabel[2]{}
\providecommand\zref@newlabel[2]{}
\citation{lane2010let}
\citation{silva2007organizaccao}
\@writefile{toc}{\beamer@sectionintoc {3}{Introdu\IeC {\c c}\IeC {\~a}o}{3}{0}{3}}
\@writefile{nav}{\headcommand {\sectionentry {3}{Introdu\IeC {\c c}\IeC {\~a}o}{3}{Introdu\IeC {\c c}\IeC {\~a}o}{0}}}
\@writefile{nav}{\headcommand {\beamer@sectionpages {3}{2}}}
\@writefile{nav}{\headcommand {\beamer@subsectionpages {3}{2}}}
\@writefile{nav}{\headcommand {\slideentry {3}{0}{1}{3/3}{}{0}}}
\@writefile{nav}{\headcommand {\beamer@framepages {3}{3}}}
\providecommand*\caption@xref[2]{\@setref\relax\@undefined{#1}}
\newlabel{fig:quantidadeDeCurriculosPorNiveis}{{1}{4}{Introdução}{Doc-Start}{}}
\@writefile{snm}{\beamer@slide {fig:quantidadeDeCurriculosPorNiveis}{4}}
\@writefile{nav}{\headcommand {\slideentry {3}{0}{2}{4/4}{}{0}}}
\@writefile{nav}{\headcommand {\beamer@framepages {4}{4}}}
\@writefile{toc}{\beamer@sectionintoc {4}{Introdu\IeC {\c c}\IeC {\~a}o ferramentas}{5}{0}{4}}
\@writefile{nav}{\headcommand {\sectionentry {4}{Introdu\IeC {\c c}\IeC {\~a}o ferramentas}{5}{Introdu\IeC {\c c}\IeC {\~a}o ferramentas}{0}}}
\@writefile{nav}{\headcommand {\beamer@sectionpages {3}{4}}}
\@writefile{nav}{\headcommand {\beamer@subsectionpages {3}{4}}}
\@writefile{nav}{\headcommand {\slideentry {4}{0}{1}{5/5}{}{0}}}
\@writefile{nav}{\headcommand {\beamer@framepages {5}{5}}}
\@writefile{toc}{\beamer@sectionintoc {5}{Introdu\IeC {\c c}\IeC {\~a}o processo ScriptLattes}{6}{0}{5}}
\@writefile{nav}{\headcommand {\sectionentry {5}{Introdu\IeC {\c c}\IeC {\~a}o processo ScriptLattes}{6}{Introdu\IeC {\c c}\IeC {\~a}o processo ScriptLattes}{0}}}
\@writefile{nav}{\headcommand {\beamer@sectionpages {5}{5}}}
\@writefile{nav}{\headcommand {\beamer@subsectionpages {5}{5}}}
\newlabel{fig:agrupamentoHierarquico}{{\caption@xref {fig:agrupamentoHierarquico}{ on input line 89}}{6}{Introdução processo ScriptLattes}{Doc-Start}{}}
\@writefile{snm}{\beamer@slide {fig:agrupamentoHierarquico}{6}}
\@writefile{nav}{\headcommand {\slideentry {5}{0}{1}{6/6}{}{0}}}
\@writefile{nav}{\headcommand {\beamer@framepages {6}{6}}}
\citation{fernandez2012semantic}
\citation{giordano2015uso}
\citation{mena2013prospecccao}
\citation{silveira2012analise}
\citation{nigro2016uso}
\citation{de2014redes}
\@writefile{toc}{\beamer@sectionintoc {6}{Introdu\IeC {\c c}\IeC {\~a}o trabalho}{7}{0}{6}}
\@writefile{nav}{\headcommand {\sectionentry {6}{Introdu\IeC {\c c}\IeC {\~a}o trabalho}{7}{Introdu\IeC {\c c}\IeC {\~a}o trabalho}{0}}}
\@writefile{nav}{\headcommand {\beamer@sectionpages {6}{6}}}
\@writefile{nav}{\headcommand {\beamer@subsectionpages {6}{6}}}
\@writefile{nav}{\headcommand {\slideentry {6}{0}{1}{7/7}{}{0}}}
\@writefile{nav}{\headcommand {\beamer@framepages {7}{7}}}
\@setckpt{introducao}{
\setcounter{page}{8}
\setcounter{equation}{0}
\setcounter{enumi}{0}
\setcounter{enumii}{0}
\setcounter{enumiii}{0}
\setcounter{enumiv}{0}
\setcounter{footnote}{0}
\setcounter{mpfootnote}{0}
\setcounter{beamerpauses}{1}
\setcounter{bookmark@seq@number}{6}
\setcounter{lecture}{0}
\setcounter{part}{0}
\setcounter{section}{6}
\setcounter{subsection}{0}
\setcounter{subsubsection}{0}
\setcounter{subsectionslide}{1}
\setcounter{framenumber}{7}
\setcounter{figure}{1}
\setcounter{table}{0}
\setcounter{parentequation}{0}
\setcounter{theorem}{0}
\setcounter{AM@survey}{0}
\setcounter{LT@tables}{0}
\setcounter{LT@chunks}{0}
\setcounter{ContinuedFloat}{0}
\setcounter{KVtest}{0}
\setcounter{subfigure}{0}
\setcounter{subfigure@save}{0}
\setcounter{depth}{1}
\setcounter{subtable}{0}
\setcounter{subtable@save}{0}
\setcounter{section@level}{0}
}
