\relax 
\providecommand\hyper@newdestlabel[2]{}
\providecommand\zref@newlabel[2]{}
\@writefile{toc}{\beamer@subsectionintoc {7}{1}{Questoes}{8}{0}{7}}
\@writefile{nav}{\headcommand {\beamer@subsectionentry {0}{7}{1}{8}{Questoes}}\headcommand {\beamer@subsectionpages {8}{7}}}
\@writefile{nav}{\headcommand {\slideentry {7}{1}{1}{8/10}{Questoes}{0}}}
\@writefile{nav}{\headcommand {\beamer@framepages {8}{10}}}
\@writefile{nav}{\headcommand {\slideentry {7}{1}{2}{11/11}{Questoes}{0}}}
\@writefile{nav}{\headcommand {\beamer@framepages {11}{11}}}
\@setckpt{problema}{
\setcounter{page}{12}
\setcounter{equation}{0}
\setcounter{enumi}{0}
\setcounter{enumii}{0}
\setcounter{enumiii}{0}
\setcounter{enumiv}{0}
\setcounter{footnote}{0}
\setcounter{mpfootnote}{0}
\setcounter{beamerpauses}{1}
\setcounter{bookmark@seq@number}{8}
\setcounter{lecture}{0}
\setcounter{part}{0}
\setcounter{section}{7}
\setcounter{subsection}{1}
\setcounter{subsubsection}{0}
\setcounter{subsectionslide}{2}
\setcounter{framenumber}{9}
\setcounter{figure}{1}
\setcounter{table}{0}
\setcounter{parentequation}{0}
\setcounter{theorem}{0}
\setcounter{AM@survey}{0}
\setcounter{LT@tables}{0}
\setcounter{LT@chunks}{0}
\setcounter{ContinuedFloat}{0}
\setcounter{KVtest}{0}
\setcounter{subfigure}{0}
\setcounter{subfigure@save}{0}
\setcounter{depth}{1}
\setcounter{subtable}{0}
\setcounter{subtable@save}{0}
\setcounter{section@level}{0}
}
